%YAML 1.1
%TAG !u! tag:unity3d.com,2011:
--- !u!114 &11400000
MonoBehaviour:
  m_ObjectHideFlags: 0
  m_CorrespondingSourceObject: {fileID: 0}
  m_PrefabInstance: {fileID: 0}
  m_PrefabAsset: {fileID: 0}
  m_GameObject: {fileID: 0}
  m_Enabled: 1
  m_EditorHideFlags: 0
  m_Script: {fileID: 11500000, guid: 179031775f6c1444caeff86bd92c8a5f, type: 3}
  m_Name: Tree8
  m_EditorClassIdentifier: 
  plantName: Esnuscaisy
  plantThreat: 2
  icon: {fileID: 2800000, guid: 16f212060e9944e5e87eba6db61f118b, type: 3}
